<?xml version="1.0" encoding="UTF-8" standalone="no"?>
<!-- Generator: Adobe Illustrator 14.0.0, SVG Export Plug-In . SVG Version: 6.00 Build 43363)  -->

<svg
   xmlns:dc="http://purl.org/dc/elements/1.1/"
   xmlns:cc="http://creativecommons.org/ns#"
   xmlns:rdf="http://www.w3.org/1999/02/22-rdf-syntax-ns#"
   xmlns:svg="http://www.w3.org/2000/svg"
   xmlns="http://www.w3.org/2000/svg"
   xmlns:sodipodi="http://sodipodi.sourceforge.net/DTD/sodipodi-0.dtd"
   xmlns:inkscape="http://www.inkscape.org/namespaces/inkscape"
   version="1.1"
   id="Laag_1"
   x="0px"
   y="0px"
   width="450"
   height="450"
   viewBox="0 0 450 450.00001"
   enable-background="new 0 0 450.87 448.723"
   xml:space="preserve"
   inkscape:version="0.91 r13725"
   sodipodi:docname="icon.svg"
   inkscape:export-filename="/home/frode/Sync/Code/PPFlag/icon.png"
   inkscape:export-xdpi="51.990002"
   inkscape:export-ydpi="51.990002"><metadata
     id="metadata11"><rdf:RDF><cc:Work
         rdf:about=""><dc:format>image/svg+xml</dc:format><dc:type
           rdf:resource="http://purl.org/dc/dcmitype/StillImage" /><dc:title></dc:title></cc:Work></rdf:RDF></metadata><defs
     id="defs9" /><sodipodi:namedview
     pagecolor="#808080"
     bordercolor="#666666"
     borderopacity="1"
     objecttolerance="10"
     gridtolerance="10"
     guidetolerance="10"
     inkscape:pageopacity="0"
     inkscape:pageshadow="2"
     inkscape:window-width="1920"
     inkscape:window-height="1032"
     id="namedview7"
     showgrid="false"
     inkscape:showpageshadow="false"
     inkscape:zoom="0.74378717"
     inkscape:cx="-244.98255"
     inkscape:cy="193.77251"
     inkscape:window-x="0"
     inkscape:window-y="24"
     inkscape:window-maximized="1"
     inkscape:current-layer="Laag_1" /><circle
     style="color:#000000;clip-rule:nonzero;display:inline;overflow:visible;visibility:visible;opacity:1;isolation:auto;mix-blend-mode:normal;color-interpolation:sRGB;color-interpolation-filters:linearRGB;solid-color:#000000;solid-opacity:1;fill:#ffffff;fill-opacity:1;fill-rule:evenodd;stroke:#000000;stroke-width:24.58186722;stroke-linecap:round;stroke-linejoin:round;stroke-miterlimit:4;stroke-dasharray:none;stroke-dashoffset:0;stroke-opacity:1;color-rendering:auto;image-rendering:auto;shape-rendering:auto;text-rendering:auto;enable-background:accumulate"
     id="path4133"
     cx="225"
     cy="225"
     r="209.3103" /><path
     d="M 369.991,189.98501 C 365.971,75.130008 232.776,80.864008 160.659,93.313008 v -29.697 h -19.6 v 33.515 c -21.07,4.596002 -31.58,8.577002 -22.4,6.485002 6.018,-1.372 13.791,-1.138 22.4,0.518 v 195.536 c -17.398,42.362 9.653,90.459 8.8,86.347 -18.4,-101.2 84,-104 84,-104 0,0 137.599,-1.6 136.132,-92.032 m -197.733,73.632 c -4.316,2.759 -8.166,5.683 -11.6,8.736 v -162.472 c 52.599,20.411 110.851,82.054 11.6,153.736"
     id="path3"
     inkscape:connector-curvature="0" /></svg>